; Engine configuration file.
; It's best edited using the editor UI and not directly,
; since the parameters that go here are not all obvious.
;
; Format:
;   [section] ; section goes between []
;   param=value ; assign values to parameters

config_version=4

[application]

config/name="Crab Buffet"
run/main_scene="res://Main.tscn"
config/icon="res://icon.png"

[display]

window/size/width=288
window/size/height=160
window/size/test_width=1280
window/size/test_height=720
window/stretch/mode="viewport"
window/stretch/aspect="keep"

[global]

movie=false
touch=false

[gui]

common/drop_mouse_on_gui_input_disabled=true

[input]

up={
"deadzone": 0.5,
"events": [ Object(InputEventKey,"resource_local_to_scene":false,"resource_name":"","device":0,"alt":false,"shift":false,"control":false,"meta":false,"command":false,"pressed":false,"scancode":0,"physical_scancode":87,"unicode":0,"echo":false,"script":null)
, Object(InputEventKey,"resource_local_to_scene":false,"resource_name":"","device":0,"alt":false,"shift":false,"control":false,"meta":false,"command":false,"pressed":false,"scancode":0,"physical_scancode":16777232,"unicode":0,"echo":false,"script":null)
, Object(InputEventKey,"resource_local_to_scene":false,"resource_name":"","device":0,"alt":false,"shift":false,"control":false,"meta":false,"command":false,"pressed":false,"scancode":0,"physical_scancode":73,"unicode":0,"echo":false,"script":null)
, Object(InputEventJoypadButton,"resource_local_to_scene":false,"resource_name":"","device":0,"button_index":12,"pressure":0.0,"pressed":false,"script":null)
 ]
}
down={
"deadzone": 0.5,
"events": [ Object(InputEventKey,"resource_local_to_scene":false,"resource_name":"","device":0,"alt":false,"shift":false,"control":false,"meta":false,"command":false,"pressed":false,"scancode":0,"physical_scancode":83,"unicode":0,"echo":false,"script":null)
, Object(InputEventKey,"resource_local_to_scene":false,"resource_name":"","device":0,"alt":false,"shift":false,"control":false,"meta":false,"command":false,"pressed":false,"scancode":0,"physical_scancode":16777234,"unicode":0,"echo":false,"script":null)
, Object(InputEventKey,"resource_local_to_scene":false,"resource_name":"","device":0,"alt":false,"shift":false,"control":false,"meta":false,"command":false,"pressed":false,"scancode":0,"physical_scancode":75,"unicode":0,"echo":false,"script":null)
, Object(InputEventJoypadButton,"resource_local_to_scene":false,"resource_name":"","device":0,"button_index":13,"pressure":0.0,"pressed":false,"script":null)
 ]
}
left={
"deadzone": 0.5,
"events": [ Object(InputEventKey,"resource_local_to_scene":false,"resource_name":"","device":0,"alt":false,"shift":false,"control":false,"meta":false,"command":false,"pressed":false,"scancode":0,"physical_scancode":65,"unicode":0,"echo":false,"script":null)
, Object(InputEventKey,"resource_local_to_scene":false,"resource_name":"","device":0,"alt":false,"shift":false,"control":false,"meta":false,"command":false,"pressed":false,"scancode":0,"physical_scancode":16777231,"unicode":0,"echo":false,"script":null)
, Object(InputEventKey,"resource_local_to_scene":false,"resource_name":"","device":0,"alt":false,"shift":false,"control":false,"meta":false,"command":false,"pressed":false,"scancode":0,"physical_scancode":74,"unicode":0,"echo":false,"script":null)
, Object(InputEventJoypadButton,"resource_local_to_scene":false,"resource_name":"","device":0,"button_index":14,"pressure":0.0,"pressed":false,"script":null)
 ]
}
right={
"deadzone": 0.5,
"events": [ Object(InputEventKey,"resource_local_to_scene":false,"resource_name":"","device":0,"alt":false,"shift":false,"control":false,"meta":false,"command":false,"pressed":false,"scancode":0,"physical_scancode":68,"unicode":0,"echo":false,"script":null)
, Object(InputEventKey,"resource_local_to_scene":false,"resource_name":"","device":0,"alt":false,"shift":false,"control":false,"meta":false,"command":false,"pressed":false,"scancode":0,"physical_scancode":16777233,"unicode":0,"echo":false,"script":null)
, Object(InputEventKey,"resource_local_to_scene":false,"resource_name":"","device":0,"alt":false,"shift":false,"control":false,"meta":false,"command":false,"pressed":false,"scancode":0,"physical_scancode":76,"unicode":0,"echo":false,"script":null)
, Object(InputEventJoypadButton,"resource_local_to_scene":false,"resource_name":"","device":0,"button_index":15,"pressure":0.0,"pressed":false,"script":null)
 ]
}
quit={
"deadzone": 0.5,
"events": [ Object(InputEventKey,"resource_local_to_scene":false,"resource_name":"","device":0,"alt":false,"shift":true,"control":false,"meta":false,"command":false,"pressed":false,"scancode":0,"physical_scancode":16777248,"unicode":0,"echo":false,"script":null)
 ]
}
fire={
"deadzone": 0.5,
"events": [ Object(InputEventMouseButton,"resource_local_to_scene":false,"resource_name":"","device":0,"alt":false,"shift":false,"control":false,"meta":false,"command":false,"button_mask":0,"position":Vector2( 0, 0 ),"global_position":Vector2( 0, 0 ),"factor":1.0,"button_index":1,"pressed":false,"doubleclick":false,"script":null)
 ]
}
fire_joy_left={
"deadzone": 0.5,
"events": [ Object(InputEventJoypadMotion,"resource_local_to_scene":false,"resource_name":"","device":0,"axis":2,"axis_value":-1.0,"script":null)
 ]
}
fire_joy_right={
"deadzone": 0.5,
"events": [ Object(InputEventJoypadMotion,"resource_local_to_scene":false,"resource_name":"","device":0,"axis":2,"axis_value":1.0,"script":null)
 ]
}
fire_joy_up={
"deadzone": 0.5,
"events": [ Object(InputEventJoypadMotion,"resource_local_to_scene":false,"resource_name":"","device":0,"axis":3,"axis_value":-1.0,"script":null)
 ]
}
fire_joy_down={
"deadzone": 0.5,
"events": [ Object(InputEventJoypadMotion,"resource_local_to_scene":false,"resource_name":"","device":0,"axis":3,"axis_value":1.0,"script":null)
 ]
}
move_joy_left={
"deadzone": 0.5,
"events": [ Object(InputEventJoypadMotion,"resource_local_to_scene":false,"resource_name":"","device":0,"axis":0,"axis_value":-1.0,"script":null)
 ]
}
move_joy_right={
"deadzone": 0.5,
"events": [ Object(InputEventJoypadMotion,"resource_local_to_scene":false,"resource_name":"","device":0,"axis":0,"axis_value":1.0,"script":null)
 ]
}
move_joy_up={
"deadzone": 0.5,
"events": [ Object(InputEventJoypadMotion,"resource_local_to_scene":false,"resource_name":"","device":0,"axis":1,"axis_value":-1.0,"script":null)
 ]
}
move_joy_down={
"deadzone": 0.5,
"events": [ Object(InputEventJoypadMotion,"resource_local_to_scene":false,"resource_name":"","device":0,"axis":1,"axis_value":1.0,"script":null)
 ]
}

[layer_names]

2d_physics/layer_1="Player"
2d_physics/layer_2="Walls"
2d_physics/layer_3="Enemies"
2d_physics/layer_4="Protect"
2d_physics/layer_5="Collectibles"
2d_physics/layer_6="Traps"
2d_physics/layer_7="Obstacles"

[physics]

common/enable_pause_aware_picking=true

[rendering]

quality/driver/driver_name="GLES2"
2d/snapping/use_gpu_pixel_snap=true
vram_compression/import_etc=true
vram_compression/import_etc2=false
environment/default_environment="res://default_env.tres"
